2326#0#Ольга#Ноева#Васильевна#42#0000-00-00#1#"заместитель главного бухгалтера"#4#50000#noevaolga@rambler.ru#903-828-55-60#empty#0e30af6ca3a374dc889ae207d97405e5#0#empty#empty#empty#empty#empty#1#empty#empty#empty#1#0

15#0#Наталия#Жужнева#empty#37#0000-00-00#1#"руководитель подразделения"#4#empty#aeromaster@yandex.ru#8-906-636-18-25#empty#e10fa6c7b158b09ca65b444dbeea06cf#0#empty#empty#empty#empty#empty#1#empty#empty#empty#1#0

21#0#оксана#петрова#empty#28#0000-00-00#1#логист#2#"20 000"#petrova@mail.ru#empty#empty#d0a1a1b0bd030f6149abd2900133db1d#0#empty#empty#empty#empty#empty#1#empty#empty#empty#1#0

34#0#Вера#Тимофеева#Александровна#32#0000-00-00#1#"менеджер по импорту/экспорту, логист"#3#"свыше 20 000 рублей"#bars78@yandex.ru#"8 910 665 68 15"#"Уверенный пользователь ПК (Microsoft Office, «1С»,  электронная почта, Internet.)Умение вести переговоры, строить долгосрочные отношения с клиентами и поставщиками. Знание делового этикета.Личностные качества: целеустремленность, коммуникабельность, ответственность, исполнительность, хорошие организаторские способности,  инициативность.Владение иностранным языком: Французский (свободно);                                                        Английский (хорошо).Водительские права категории «В».Возможность командировок: не более 1 раза в квартал.Семейное положение: замужем, дочь 4 года."#f3e0b15da3aad4a7d8e9461061d553a3#0#empty#empty#empty#empty#empty#1#empty#empty#empty#1#0

36#0#Сергей#Берников#Валерьевич#25#0000-00-00#1#руководитель#2#30000#bernikov_1@mail.ru#8-910-973-34-32#empty#b0b378598350fcf111dbb07a7c9e71d5#0#empty#empty#empty#empty#empty#1#empty#empty#empty#1#0

48#0#РРРПСРО#РАВЧПР#РРРВЕНГО#22#0000-00-00#3#ПАРОВРОПНАО#2#30000#ПРОЛСПРО@GHJKFYJK.RU#444444#"НЕОВНОПАВРОВНЕГО АЕЧНТКВЕИПЕУВЯАКМ"#47e1556c630f694660cbde3cc30b29be#0#empty#empty#empty#empty#empty#1#empty#empty#empty#1#0

49#0#Сергей#Коос#Владимирович#39#0000-00-00#8#"транспортный координатор, транспортный менеджер"#2#25000#driver68@yandex.ru#"89108147863 дом 943893"#empty#c7af61b788ba11654bba981a9ac4aedc#0#empty#empty#empty#empty#empty#1#empty#empty#empty#1#0

16204#0#Иван#Серов#Александрович#0#1996-05-21#8#Комплектовщик#2#25000-27000#Serow.ivan2011@yandex.ru#+79605319365#empty#7e59e154544f6692edc3cc1843e5c130#1#2018-06-13#"Хожу в фитнес зал, бегаю"#"Лёгкая атлетика"#empty#empty#1#"2016-2017 ВМФ"#empty#empty#1#0

16169#0#Максим#Кудряшов#Вячеславович#0#1986-07-16#1#"рассмотрю любые варианты"#3#"от 30000"#maks.kudryashov.1986@mail.ru#79622149442#"Готов рассмотреть любую вакансию!О себе: аккуратный, пунктуальный, вежливый, целеустремленный, имею желание работать и зарабытывать!!!"#e2cb68f6bd42c3401de8a68010584822#1#2018-06-01#empty#empty#empty#empty#1#empty#empty#empty#1#0

16170#0#Сергей#Пучков#Александрович#0#1988-12-06#6#Комплектовщик#1#"30 000 рублей"#sena8787@mail.ru#+79109752906#"Трудолюбивый,быстро обучаемый ,активный человек!!!Учусь в ЯГТУ ,4 курс,факультет  &quot;ТЕХНОЛОГИЯ  МАШИНОСТРОЕНИЯ&quot; "#78c02eaeaf364f6eb549b0fd1a15c615#1#2018-06-03#"Спорт, активный отдых ,рыбалка"#"футбол "#empty#empty#1#"не служил "#"5 лет"#empty#1#0

59#0#Дмитрий#Титов#Андреевич#27#0000-00-00#6#Менеджер#2#"от 18 000"#diskod@rambler.ru#"8 (960) 530 12 25"#"Семейное положение:женатДети:нетВозможность командировок:непродолжительныеО себе:Активная жизненная позиция‚ постоянное совершенствование‚ увлекаюсь: ПК‚ спорт. Высокая самоотдача и ответственный подход к делу. Сдаю экзамены на права управления автомобилем."#6bdf9ac71cd41e8e227c706f42e0a7ce#0#empty#empty#empty#empty#empty#1#empty#empty#empty#1#0

62#0#Владимир#Саханов#Викторович#29#0000-00-00#1#"Коммерческий сектор"#3#"50 000 рубл"#svv_2205@mail.ru#empty#"являюсь директором ООО ""Стеклоресурс"", ранее входили в японский холдинг ""AGC"""#35645685d951f0690759237d0f79fcf3#0#empty#empty#empty#empty#empty#1#empty#empty#empty#1#0

64#0#Сергей#Налетов#Борисович#24#0000-00-00#1#"Инженер КИПиА"#1#22000#microlab_84@mail.ru#8920-108-00-08#empty#755252a08578e868f3a5afcb3eccee0d#0#empty#empty#empty#empty#empty#1#empty#empty#empty#1#0

70#0#Вячеслав#Щелоков#Алексеевич#22#0000-00-00#1#Инженер#1#"от 25000"#www.slavka-5@list.ru#8-903-829-80-14#"Работа менеджером по продажам запчастей к строительной и дорожной технике ООО “Промпак-запчасть” с 18.02.08 по настоящее времяПроизводственная практика проходила в МУП “ГДУ” Работа охранником в МУП ОП “Ярославль” 2 годаНаличие водительских прав категории “B”  (стаж вождения 3 года)Наличие личного автомобиляВладение иностранным языком на базовом уровнеУровень владения компьютером             пользователь"#837d97dc21c5676e0bc4d3df8671bcf5#0#empty#empty#empty#empty#empty#1#empty#empty#empty#1#0

74#0#Андрей#Лялин#Викторович#28#0000-00-00#1#"Начальник отдела внешнеэкономической деятельности"#2#"От 35 тыс.руб"#a.lyalin@list.ru#8-915-995-40-94#empty#23f799c4bb0d9d42c2fceac553749ca4#0#empty#"Рыбалка, активный отдых (велосипед, ролики, лыжи)"#"Лыжный, "#empty#empty#1#empty#empty#empty#1#0

75#0#Андрей#Лялин#Викторович#28#0000-00-00#1#"Начальник отдела внешнеэкономической деятельности"#2#"От 35 тыс.руб"#a.lyalin@list.ru#8-915-995-40-94#empty#ca0e56a207de20753e2a60a93ada9a91#0#empty#"Рыбалка, Активный отдых (Велосипед, ролики, Коньки, Лыжи)"#Лыжный#empty#empty#1#empty#empty#empty#1#0

16171#0#Антон#Сидяков#Михайлович#0#1985-10-12#7#Комплектовщик#1#empty#anthosha76@gmail.com#89201258021#"Уверенный пользователь ПК, права категории АВ, базовые знания английского языка"#b47bc234f3db295bea36f7ba3f655100#1#2018-06-03#"Спорт, туризм"#фитнес#empty#empty#1#"не служил"#"АВ стаж 8 лет"#empty#1#0

16172#0#"Людмила "#"Балдина "#"Витальевна "#0#1984-07-31#7#Комплектовщик#4#27000-30000#lyudmila-baldina@mail.ru#+79807410771#empty#48bce4594a875ce413a7ee3110bf6e00#0#2018-06-04#empty#empty#empty#empty#1#empty#empty#empty#0#0

79#0#Антон#Барулев#Владимирович#23#0000-00-00#1#"мастер участка"#1#"от 15000"#antonbarulev@yandex.ru#"8 920 103 3660"#empty#d8cb74d0a17fdc5cccd5f3a1413722c6#0#empty#empty#empty#empty#empty#1#empty#empty#empty#1#0

82#0#илья#огородов#андреевич#29#0000-00-00#6#наладчик#3#20000#ogorod2010@yandex.ru#89092787009#empty#fee27e54926a52fe9d4a24ebd8938881#0#empty#empty#empty#empty#empty#1#empty#empty#empty#1#0

83#0#Максим#Филиппов#Алексеевич#20#0000-00-00#6#техник#0#empty#fmafavfen@bk.ru#empty#empty#04ca43ab2284e02bb5be2e16b6ff33bf#0#empty#empty#empty#empty#empty#1#empty#empty#empty#1#0

86#0#Виктор#"Космодемьянский "#Леонидович#38#0000-00-00#1#"специалист в финансовой сфере, бух учете"#4#"от 40000"#kosmos@yartpp.ru#8-903-691-33-99#"В настоящее время главный бухгалтер ярославской областной торгово-промышленной палаты"#e0a387e3ec4903ca18e2a981f767a7e4#0#empty#empty#empty#empty#empty#1#empty#empty#empty#1#0

87#0#Денис#"Куклин "#Александрович#24#0000-00-00#1#"наладчик оборудования"#1#"20,000 - 25,0000"#kuklin@komatsumr.ru#empty#empty#cf6a19b5beaf1d98d4a32981857632f8#0#empty#empty#empty#empty#empty#1#empty#empty#empty#1#0

89#0#Илья#Чистяков#empty#30#0000-00-00#1#"начальник сервисной службы"#2#35000#ilya64n6@rambler.ru#8-905-130-74-70#empty#2ae133332bba51597bbe4d3e42a3698a#0#empty#"старинные автомобили"#"гири, 3 разряд"#empty#empty#1#empty#empty#empty#1#0

96#0#Михаил#Коровин#Сергеевич#22#0000-00-00#1#инженер#1#20000#moreman9@yandex.ru#89201037031#empty#65c224abb25e964e56155bb3fae2cd7a#0#empty#empty#empty#empty#empty#1#empty#empty#empty#1#0

102#0#Алексей#Кубасов#Васильевич#30#0000-00-00#1#Инженер-конструктор#3#"от 30000"#a.kubasov@eldin.ru#89051338401#"Женат,двое детей.Проживаю в г.Тутаеве, Ярославской обл."#91b6f22aa5b164397fa9b20a927af0cf#0#empty#empty#empty#empty#empty#1#empty#empty#empty#1#0

106#0#Павел#Терентьев#Николаевич#24#0000-00-00#1#"инженер-конструктор, инженер-технолог"#2#20#outsider_tpn@mail.ru#89023322238#"холост. без вредных привычек"#e74108e99f2191197205bdd135fa00b8#0#empty#empty#empty#empty#empty#1#empty#empty#empty#1#0

107#0#"Юрий "#Зеленов#Витальевич#29#0000-00-00#1#Наладчик#3#empty#zelenka-1979.01@mail.ru#8-920-650-46-46#"4 года работал наладчиком сигаретных машин.  В данный момент работаю инженер-конструктором (3 года)"#18c908f462eeef1bb9457155c5e43b5b#0#empty#empty#empty#empty#empty#1#empty#empty#empty#1#0

111#0#Павел#Терентьев#Николаевич#24#0000-00-00#1#ИТР#2#"20.000 рублей"#outsider_tpn@mail.ru#89023322238#"холостбез вредных привычек"#55000caa562fbe15d9bf7b667ac38e85#0#empty#empty#empty#empty#empty#1#empty#empty#empty#1#0

114#0#Сергей#Игнатьев#Алексеевич#23#0000-00-00#1#инженер-технолог#2#"от 20000 руб"#signatuev@rambler.ru#8-902-330-5461#empty#8788e86dd72af98290eb9fbb0ce50206#0#empty#empty#empty#empty#empty#1#empty#empty#empty#1#0

123#0#Сергей#Хвальцов#Львович#31#0000-00-00#8#"водитель, механик промышленного оборудования"#4#20000#ekhannanova@yandex.ru#89036918898#empty#7b1b8a43ae2ae9ea2157207ae80ee768#0#empty#empty#empty#empty#empty#1#empty#empty#empty#1#0

129#0#Алексей#Потемкин#Владимирович#30#0000-00-00#6#"Мастер производственного участка"#3#20000#potema78@yandex.ru#89058211908#empty#39e099b22d2fd420a2f0515636e4839e#0#empty#empty#empty#empty#empty#1#empty#empty#empty#1#0

134#0#Сергей#Захаров#Анатольевич#37#0000-00-00#6#"наладчик "#2#30000#agat1970@mail.ru#+79108208598#трудолюбив#8574b5025fea65eb9969cf12aa393e20#0#empty#empty#empty#empty#empty#1#empty#empty#empty#1#0

140#0#Михаил#Смирнов#Сергеевич#22#0000-00-00#6#"менеджер организации/инженер"#1#"от 20 000"#smirnov.michael@micron.yar.ru#"8-902-332-48-80 / 8-915-995-87-69 "#empty#90e463d1ed22010fe675b2e75261cacd#0#empty#empty#empty#empty#empty#1#empty#empty#empty#1#0

141#0#Александр#Мариничев#empty#28#0000-00-00#1#"Руководитель направления/ отдела в IT"#2#empty#sm_1024@mail.ru#"+7 903 8251614"#empty#ed34e8f345ab229e42c840a66a992603#0#empty#empty#empty#empty#empty#1#empty#empty#empty#1#0

144#0#"Анастасия "#"Арсеньева "#"Александровна "#25#0000-00-00#1#"старший экономист, экономист, финансист-аналитик , бухгалтер"#3#empty#saburova.nastya@mail.ru#"+7 (960) 740-02-22 (моб.) "#"saburova.nastya@mail.ru "#3d4253ceadcf4301489cd34b19153d48#0#empty#empty#empty#empty#empty#1#empty#empty#empty#1#0

146#0#Илья#Сахаров#Владимирович#23#0000-00-00#8#Наладчик#2#empty#sav@riverhotal-vp.ru#8-960-533-32-30#empty#3b981985c1ed9227074303640e3fa11b#0#empty#empty#empty#empty#empty#1#empty#empty#empty#1#0

149#0#АЛЕКСЕЙ#ЛЕТКОВ#ГЕННАДЬЕВИЧ#39#0000-00-00#8#"ЛИЧНЫЙ ВОДИТЕЛЬ"#4#20000-30000#VIDEOPS@MAIL.RU#89206504020#empty#dc1b4e2aa13fb873643659817add8369#0#empty#"ФИЛЬМЫ, АВТОМОБИЛИ,ФОТОГРАФИЯ"#"ЛЮБЫМ  ПО НЕМНОГУ"#empty#empty#1#empty#empty#empty#1#0

150#0#Светлана#Пустыльник#Владимировна#21#0000-00-00#6#"менеджер по качеству, специалист по сертификации, специалист по стандартизации"#2#"от 20 тыс. руб."#svetlana-pustylnik@rambler.ru#"8(960)530-43-85, 8(4852)32-00-62"#"Город проживания: ЯрославльДата рождения: 14 марта 1987 г.Семейное положение: не замужем"#45468f814037c0c6110156a2e2f41976#0#empty#empty#empty#empty#empty#1#empty#empty#empty#1#0

154#0#Кирилл#Щуров#Сергеевич#24#0000-00-00#1#"Начальник отдела IT"#2#35000-40000#kshurov@toyota-yar.ru#89206555152#empty#a08b5ce19c4e5f0ba451629d91657690#0#empty#empty#empty#empty#empty#1#empty#empty#empty#1#0

155#0#Виктория#Спиридонова#empty#22#0000-00-00#1#"специалист по снабжению"#2#empty#victoria.spiridonova@gmail.com#empty#empty#70dbc4ac20087dff6866fb4fc0a894e6#0#empty#empty#empty#empty#empty#1#empty#empty#empty#1#0

156#0#Кирилл#Щуров#Сергеевич#24#0000-00-00#1#"Начальник отдела IT"#2#35000-40000#kshurov@toyota-yar.ru#89206555152#empty#79218bd96eb734493a723c2e79fb7195#0#empty#empty#empty#empty#empty#1#empty#empty#empty#1#0

157#0#Юрий#"Семенов "#Николаевич#24#0000-00-00#1#инженер#2#"от 25000"#vlask777@mail.ru#+79056364534#empty#f65a1c63ad9de2dd9644dad6f5f5d7a2#0#empty#empty#empty#empty#empty#1#empty#empty#empty#1#0

162#0#Сергей#Баранов#empty#44#0000-00-00#1#"Исполнительный директор"#2#empty#sebar@mail.ru#empty#empty#e23871094017d7d2d28089bab8cb0994#0#empty#фотография#"горные лыжи"#empty#empty#1#empty#empty#empty#1#0

164#0#Екатерина#Иванова#Юрьевна#25#0000-00-00#1#"менеджер ВЭД"#2#13000#ivanova_ek@inbox.ru#8-910-970-53-94#"Семейное положение: не замужемМесто жительства: г. Ярославль"#e7dd0580d957785f90a35487317484e3#0#empty#"Чтение книг, музыка, восточные танцы."#"Увлекаюсь плаваньем, исключительно для души"#empty#empty#1#empty#empty#empty#1#0

169#0#Алексей#"Печенин "#Жанович#50#0000-00-00#1#"инженер-электронщик, КИП"#4#"50 000 р"#flockteams@yandex.ru#"74-46-32, 8(905)-634-80-54"#empty#7d137ed2fc7e7af625ebd516fdcf3182#0#empty#empty#empty#empty#empty#1#empty#empty#empty#1#0

172#0#Олег#Козлов#Владимирович#31#0000-00-00#1#инженер#2#30000#olegmilitari@rambler.ru#"дом 45-68-56 сот 8-920-114-69-39"#empty#d7de3fc1ac916e686410bf496db589b5#0#empty#"компьютер интернет"#"тренажерный зал непрофессионально"#empty#empty#1#empty#empty#empty#1#0

183#0#Александр#Никишин#Юрьевич#26#0000-00-00#1#"менеджера, маркетолога."#3#25000#Niki_ay@mail.ru#89109749395#empty#5bfa5e02ab6644dd0aa78f158e40f716#0#empty#empty#empty#empty#empty#1#empty#empty#empty#1#0

188#0#Юрий#Лукьянов#empty#44#0000-00-00#1#"инженер по АСУ"#0#empty#luk-yar@yandex.ru#"+7 910 978 86 80"#empty#533ac76bea0883ea67dc51c682f58f02#0#empty#empty#empty#empty#empty#1#empty#empty#empty#1#0

194#0#Антон#"Максимов "#Сергеевич#22#0000-00-00#1#"инженер(любой направленности)"#1#15000-25000#maxx_as@bk.ru#8-910-827-01-48#"огромное желание найти интересную работу по специальности, с дальнейшим самосовершенствованием и ростам в карьере.наиболее интересным направлением считаю непосредственно производство.из  личных качеств могу назвать:упорство в достижении цели,трудолюбие,большое желание работать,коммуникабельность,склонность к обучению,легко схожусь с людьми,активный."#659418acf25f83fd00042aad9f0ec1a9#0#empty#"спорт(любительский),активные виды отдыха,автомобили"#"футбол,хоккей,горные лыжи,сноуборд"#empty#empty#1#empty#empty#empty#1#0

196#0#Юрий#Лукьянов#empty#44#0000-00-00#1#"Инженер АСУ"#4#empty#luk-yar@yandex.ru#"+7 910 978 86 80"#empty#412c3a29584a25d5e88d55353011fc40#0#empty#empty#empty#empty#empty#1#empty#empty#empty#1#0

202#0#"Олег "#Гуртовой#empty#37#0000-00-00#1#"Начальник цеха, главный механик"#4#30000#vishnevskaya@ao.yartelecom.ru#89036902937#empty#a4db41665a4f959c1238af5739a35ed1#0#empty#"Компьютеры, автомобили"#empty#empty#empty#1#empty#empty#empty#1#0

211#0#Надежда#Самолазова#Николаевна#45#0000-00-00#1#"директор по производству обшественного питания "#4#"35000 "#Yarpoliteh@yandex.ru#8-915-961-08-77#empty#e7b135ea798eba4ced85744a753c662b#0#empty#empty#empty#empty#empty#1#empty#empty#empty#1#0

212#0#Алексей#Погодин#Рудольфович#44#0000-00-00#1#руководитель#4#"40 000-50 000"#Aleksei.pogodin@mail.ru#"55-54-40. 910-970-8333"#empty#509cdbd061e26c1ad13a9e52abc15c0c#0#empty#empty#empty#empty#empty#1#empty#empty#empty#1#0

219#0#Евгений#"Жигалов "#Валерьевич#35#0000-00-00#2#"мастер по ремонту оснастки"#2#"28000-30000 руб."#zhe4887@yandex.ru#+79036387367#empty#784f780b36338e5e2a13cdd4385c9c93#0#empty#empty#empty#empty#empty#1#empty#empty#empty#1#0

220#0#Александр#Кокорев#Владимирович#42#0000-00-00#1#"Механик, Главный механик"#3#"по договоренности"#akokorev.07@mail.ru#8-916-934-83-73#empty#458537eb98c3e7f75b0d6d4b0113c8a0#0#empty#empty#empty#empty#empty#1#empty#empty#empty#1#0

227#0#Олег#Феддер#Игоревич#40#0000-00-00#1#инженер#3#30000-35000#fedder@rambler.ru#"8-902-332-16-77, (4852) 55-95-03"#"Специализация: снабжение, договорная работа, конкурсы.Навыки: windows, exel,internet,почтовые программы, английский со славрем"#12d447c5cf8ce3d802c1d7f3198dcff6#0#empty#empty#empty#empty#empty#1#empty#empty#empty#1#0

239#0#Алексей#Махонин#Александрович#28#0000-00-00#1#инженер#3#20000#alexey_mak@rambler.ru#8-905-634-17-87#empty#c95de6ee90f70466e60f02e3406283ce#0#empty#empty#empty#empty#empty#1#empty#empty#empty#1#0

243#0#Евгений#Тюрин#Александрович#40#0000-00-00#8#Наладчик#4#30т.рублей#memory1968@mail.ru#"4852456392  моб.т.89109750204"#"В настоящее время работаю в ЗАО ""Балканская звезда"" с 02.1999года, наладчиком 6 разряда сигаретно-упаковочной линии. Работал на линиях итальянского производства фирмы ""SASIB"" и ""GD"". В 2002 году проходил обучение на линию ""GD"" Х2 в городе Болония (Италия), а в 2005 году на ""GD"" Х3.Имеются сертификаты. В 2007 году был направлен в Польшу для настраивания новой линии и обучению персонала."#ef1730d8a2eb7fcf9572a781dccbdfdb#0#empty#empty#empty#empty#empty#1#empty#empty#empty#1#0

254#0#Денис#"Рыженков "#Сергеевич#22#0000-00-00#1#инженер#1#empty#denisruzenkov@mail.ru#empty#empty#78cf0d2b0f664290a1adeb5f3adbc347#0#empty#empty#empty#empty#empty#1#empty#empty#empty#1#0

255#0#Николай#Молчанов#Юрьевич#22#0000-00-00#1#инженер#1#20000р#molchanov.n@mail.ru#8-920-650-21-81#empty#1d48bc547e6a3e64b53ab19789dd758b#0#empty#empty#empty#empty#empty#1#empty#empty#empty#1#0

263#0#Алексей#Белоусов#Викторович#26#0000-00-00#1#"инженерно-техническая должность"#0#20000р#kolaps@bk.ru#empty#empty#8f1799ae0f0f14f1ce6cae69b5df4d5e#0#empty#empty#empty#empty#empty#1#empty#empty#empty#1#0

265#0#Сергей#Горячкин#Андреевич#22#0000-00-00#1#"Менеджер отдела продаж/Маркетинга"#2#"15000 руб."#gorychkin@rambler.ru#"8 (910)97-111-57"#"Всегда на связи!"#599511fa452a62a4cc75386a12fc6bc7#0#empty#empty#empty#empty#empty#1#empty#empty#empty#1#0

268#0#Павел#Терентьев#empty#23#0000-00-00#0#"инженер-конструктор, инженер-технолог"#0#empty#1@2.ru#empty#empty#96f49fbebfaf44f87438a3b7cb076963#0#empty#empty#empty#empty#empty#1#empty#empty#empty#1#0

269#0#Андрей#Ковалев#Владимирович#24#0000-00-00#2#"системный администратор"#3#35000#andreikov@mail.ru#+7-920-100-59-19#empty#5c76ea5073e5f0c3289db853df686d55#0#empty#empty#empty#empty#empty#1#empty#empty#empty#1#0

270#0#Евгений#Плясов#Викторович#30#0000-00-00#1#"Руководитель производства, инженер"#3#40000#eugeneplyasov@mail.ru#8-910-665-23-36#empty#98d642d4ab40f5ea7fa772715d0491ba#0#empty#empty#empty#empty#empty#1#empty#empty#empty#1#0

275#0#Владимир#Балов#Сергеевич#26#0000-00-00#1#Наладчик#0#35000-40000#balov_82@mail.ru#+79201105539#empty#ff48a9731c1a007be97f820b20908f4f#0#empty#empty#empty#empty#empty#1#empty#empty#empty#1#0

277#0#Сергей#Лапин#Викторович#32#0000-00-00#1#Наладчик#1#empty#pariga2008@yandex.ru#89611531826#empty#263ccc27eafdea6ce82344f9cc148339#0#empty#"Фитнес,шахматы, радиоэлектроника(немного)"#"Бокс(КМС 17лет)"#empty#empty#1#empty#empty#empty#1#0

279#0#Сергей#Беспалов#Викторович#42#0000-00-00#8#"к какой подойду"#0#"15 - 20 т. руб."#sergeyvb.66@mail.ru#74-21-94#"Семья многодетная, поэтому не могу работать в ночные смены. "#80d0ec97e162f9058480af7ef2edb468#0#empty#empty#empty#empty#empty#1#empty#empty#empty#1#0

285#0#Олег#Грек#Иванович#34#0000-00-00#1#"руководитель отдела снабжения"#3#"30-40 тыс. рублей"#oigrek@rambler.ru#8-910-664-83-65#"Дополнительное образование: ЯГПУ, по специальности ""Оценщик"""#404e9b6cf09cadbe7ff3f2b1ccc3d343#0#empty#empty#empty#empty#empty#1#empty#empty#empty#1#0

286#0#Олег#Свистунов#Владимирович#39#0000-00-00#1#инженер#4#"от 25 тысяч"#svintuson@yandex.ru#8-903-638-11-51#empty#e694b5dc75bc60b6a2d8241939e198e5#0#empty#empty#empty#empty#empty#1#empty#empty#empty#1#0

288#0#Евгений#Загоскин#Николаевич#35#0000-00-00#0#"Любая, желательно с обучением"#1#empty#iriska1801@yandex.ru#"92 03 09   Яр.GSM"#"Закончил Яр.автомеханический техникум,наладка и эксплуатация станков с ЧПУ и робототехнической техники.В г.Томск Основы гидравлики, работа гидравлических систем и механизмов.Ремонт гид.систем."#35ece84dadce980e3b4c3b2fdda918e1#0#empty#empty#empty#empty#empty#1#empty#empty#empty#1#0

289#0#Олег#Грек#Иванович#34#0000-00-00#1#"руководитель отдела снабжения, начакльник цеха, руководитель отдела сбыта"#3#"30000-40000 руб"#oigrek@rambler.ru#89106648365#"дополнительное образование ЯГПУ по специальности ""Оценка бизнеса"""#13fc5318a7a5f0b2e9fdf1d5c10c7fc7#0#empty#empty#empty#empty#empty#1#empty#empty#empty#1#0

293#0#Михаил#Долотов#Юрьевич#38#0000-00-00#1#"Наладка и ремонт оборудования"#4#empty#dolotov@nordnet.ru#89159875474#empty#7eee640341d995e0f80c0e9704a3f327#0#empty#Автомобили#empty#empty#empty#1#empty#empty#empty#1#0

305#0#Алексей#"Кононов "#Вячеславович#40#0000-00-00#1#"Инженер по охране труда и технике безопасности"#4#"от 35000"#AKononov@yaroslavl.beeline.ru#+7(905)631-61-31#empty#72b8ffda30cd41a77e2da2889244505f#0#empty#empty#empty#empty#empty#1#empty#empty#empty#1#0

307#0#Алексей#Кононов#Вячеславович#40#0000-00-00#1#"Инженер по охране труда и технике безопасности"#4#"от 35000"#AKononov@yaroslavl.beeline.ru#+7(905)6316131#empty#c29c4ea7031fa330d72c0c4b8d91395b#0#empty#empty#empty#empty#empty#1#empty#empty#empty#1#0

310#0#Александр#"Градов "#Львович#48#0000-00-00#7#"Наладчик КИПиА, Электрик"#4#"35 т.р."#abalu33@gmail.com#9038233971#empty#211026c97ea998fbef1a0a120933979a#0#empty#empty#empty#empty#empty#1#empty#empty#empty#1#0

316#0#Артем#Арсеньев#Евгеньевич#26#0000-00-00#1#"директор,(управляющий кафе( рестораном, столовой)"#2#"30 000"#Arseniy81@mail.ru#8-909-256-02-50#empty#94306bad6c486b8c537ecc50f69b3562#0#empty#empty#empty#empty#empty#1#empty#empty#empty#1#0

320#0#Лейла#Денисенко#empty#22#0000-00-00#1#"Менеджер по развитию, менеджер проектов"#2#"35 000 "#LeilaStud@rambler.ru#8-960-527-01-32#"Дополнительный телефон 8 (4852) 47-95-13"#17058c859b9b41eb79ed907ec71b4223#0#empty#empty#empty#empty#empty#1#empty#empty#empty#1#0

325#0#Олег#Бычков#Николаевич#32#0000-00-00#1#"Ведущий специалист отдела снабжения"#4#50000#home-yar@yandex.ru#"8 910 663 8 663 "#empty#1046005a4196627ecd7d3c363d2025dd#0#empty#empty#empty#empty#empty#1#empty#empty#empty#1#0

329#0#Олег#Соколов#Александрович#29#0000-00-00#1#"Мастер участка автоматики КИП и А"#3#"Не менее 30000 р. "#ma53oleg@rambler.ru#8-906-631-42-47#empty#bdbb85db9c04240dd16271c3a280a9d2#0#empty#empty#empty#empty#empty#1#empty#empty#empty#1#0

337#0#Елена#"Мишина "#Александровна#27#0000-00-00#1#"финансовый менеджер"#2#50000#elena8m@yandex.ru#"(8909) 280 07 59"#empty#c04676eec2bb701e9e30eece81c8a9c4#0#empty#empty#empty#empty#empty#1#empty#empty#empty#1#0

339#0#денис#кищенко#николаевич#25#0000-00-00#6#"иженер-механик по ремонту и обслуживанию ДСМ"#3#"от 30000 руб."#ridji_2411@mael.ru#89212314249#empty#5efa0035f96ccb7df85b26d62e7040f7#0#empty#empty#empty#empty#empty#1#empty#empty#empty#1#0

343#0#Евгений#Жавадов#Олегович#41#0000-00-00#1#"финансы, экспортно-импортные операции"#4#50000#JavadovEO@mail.ru#(910)970-57-93#"Женат. Дети 16 и 5 лет.Увлекаюсь спортомВредных привычек не имею"#1a479e9eb4f6c25aa52077bf3cd04901#0#empty#empty#empty#empty#empty#1#empty#empty#empty#1#0

348#0#Евгений#Жавадов#Олегович#41#0000-00-00#1#"Финансы, Внешнеторговые операции"#4#50000#JavadovEO@mail.ru#"(910) 970-57-93"#"Женат. Двое детей.Вредных привычек не имею."#e388c881d6579ef3fac2edd198aaac5d#0#empty#empty#empty#empty#empty#1#empty#empty#empty#1#0

351#0#Милена#"Курочкина "#Сергеевна#30#0000-00-00#1#"Финансовый директор"#3#80000-100000#milena@yarlodki.ru#+79056319486#empty#3370659dc8b3b368b9d1d5f14e4d0491#0#empty#"Йога, плавание, чтение"#"Большой теннис"#empty#empty#1#empty#empty#empty#1#0

353#0#"Галина "#Смирнова#empty#26#0000-00-00#1#"Финансовый менеджер, экономист, бухгалтер"#3#"от 20000"#Galka5682@yandex.ru#8-920-104-44-04#empty#d3b2a29baef36b4df632126b81efbfc1#0#empty#empty#empty#empty#empty#1#empty#empty#empty#1#0

359#0#Евгения#Туркина#Николаевна#22#0000-00-00#1#инженер#2#"18000 рублей"#gesha-tu@rambler.ru#89201168783#empty#24db088df5d25744085b854efc9ac455#0#empty#empty#empty#empty#empty#1#empty#empty#empty#1#0

360#0#Галина#Смирнова#empty#26#0000-00-00#1#"Финансовый менеджер, экономист, бухгалтер"#3#empty#Galka5682@yandex.ru#+7-920-104-44-04#empty#11b0271b4e517128521f9a77b1b2b410#0#empty#empty#empty#empty#empty#1#empty#empty#empty#1#0

361#0#Владимир#Василевский#Евгеньевич#21#0000-00-00#6#инженер#2#20000#vovchic@inbox.ru#+79201032829#empty#a7373cf659ebc22879e74c7568366794#0#empty#empty#empty#empty#empty#1#empty#empty#empty#1#0

362#0#c#xfg#empty#25#0000-00-00#0#bn#0#empty#5@xgf.ru#empty#empty#1287f50bc8bc7ba1e4b8bdacec31075b#0#empty#empty#empty#empty#empty#1#empty#empty#empty#1#0

363#0#Владимир#Василевский#Евгеньевич#21#0000-00-00#6#инженер#2#20000#vovchic@inbox.ru#+79201032829#empty#adfa38c25b1274168a5cc49c6f61b2c4#0#empty#empty#empty#empty#empty#1#empty#empty#empty#1#0

365#0#Tatyana#Rybakova#Fedorovna#35#0000-00-00#1#Accountant#4#empty#tatianarybakova2008@yandex.ru#8-960-529-000-6#empty#19671205db45c595623343c6d77cbcc6#0#empty#empty#empty#empty#empty#1#empty#empty#empty#1#0

371#0#Александр#Пучков#Владимирович#27#0000-00-00#2#"техник технолог"#3#"от 20000"#P.Sany@mail.ru#957595#empty#e95ecf879601e7b3bcb26426d5cde996#0#empty#empty#empty#empty#empty#1#empty#empty#empty#1#0

376#0#Татьяна#Доколина#empty#25#0000-00-00#1#экономист#2#40000#dokota@nordnet.ru#"8-905-630-88-19, 8-910-978-7126"#empty#6550d355b520ff1cdb3cf6df0fe52706#0#empty#empty#empty#empty#empty#1#empty#empty#empty#1#0

377#0#Елена#"Николаева "#Владимировна#20#0000-00-00#6#Менеджер#2#"от 20000 рублей"#Alenka_7707@mail.ru#89206501447#empty#0515644e34778e52813e93bb298a1110#0#empty#empty#empty#empty#empty#1#empty#empty#empty#1#0

380#0#Ольга#Карулина#Николаевна#24#0000-00-00#1#"менеджер отдела продаж"#3#"от 30000"#s_olya@mail.ru#89092778818#empty#4b9e1406a176014a1ad86902e4166aae#0#empty#empty#empty#empty#empty#1#empty#empty#empty#1#0

385#0#Денис#Данник#Эдуардович#22#0000-00-00#1#"Менеджер по работе с клиентами"#2#20000-25000#dannik_denis@mail.ru#8-905-635-16-05#empty#8749f9b9858d1a5f68453eaa58164f51#0#empty#empty#empty#empty#empty#1#empty#empty#empty#1#0

393#0#Марина#Егорова#Николаевна#23#0000-00-00#1#инженер#2#25000#marina_tupicina@mail.ru#89056357500#"Уверенный пользователь AutoCAD (3D моделирование), ""Компас"", занимась проектированием лестниц, ограждений, нестандартных металлоконструкций, аппаратов пищевой промышленности"#68e86adc4960090a1b95781999649293#0#empty#empty#empty#empty#empty#1#empty#empty#empty#1#0

394#0#Дмитрий#Базлов#empty#27#0000-00-00#4#"инженер-химик, эколог"#0#empty#ditiscus@mail.ru#89605402973#"кандидат химических наук, знание английского языка, опытный пользователь ПК"#009ca0cca41ef840dec07a30ea2efecb#0#empty#empty#empty#empty#empty#1#empty#empty#empty#1#0

396#0#Егор#Лисин#Эдуардович#20#0000-00-00#8#инженер#1#"25000 рублей"#Strator88@rambler.ru#89201002866#empty#573b2259db90b4626e9d8084c8ce7fc7#0#empty#empty#empty#empty#empty#1#empty#empty#empty#1#0

405#0#Ольга#Крпова#Владимировна#23#0000-00-00#3#"менеджер по персоналу"#1#15000#lolimandra85@mail.ru#89036924760#"имею опыт проведения тренингов. Опыт работы в схожей должности менее 1 года"#95bf743039a33651dd86016eca3302f5#0#empty#"йога, спорт, чтение"#"аэробика, йога"#empty#empty#1#empty#empty#empty#1#0

407#0#Екатерина#Базанова#empty#23#0000-00-00#1#Экономист#1#15000#olivenoks@rambler.ru#724760#"+7(920)6525343+7(951)2840077"#7fd2d5f01662156277da55b8866f311b#0#empty#empty#empty#empty#empty#1#empty#empty#empty#1#0

415#0#"Алексей "#"Канифатов "#Владимирович#25#0000-00-00#8#"инженер или техник "#2#20000#kanifatov129@mail.ru#89056352920#"4гр по эл.безопасности"#efc78dbc8f1529f33aa87f284ac76722#0#empty#"Электроника,техника "#"8лет плаваньем 1раз взрослый "#empty#empty#1#empty#empty#empty#1#0

417#0#счми#ис#сисм#23#0000-00-00#0#Электрогазосварщик#4#30000#kanifatov129@mail.ru#empty#empty#a64ba0a7b9a1b8ed433e84c11c3737bf#0#empty#Электроника,техника#"8 лет плаванье 1раз взро"#empty#empty#1#empty#empty#empty#1#0

431#0#Валерий#Борисов#Вадимович#43#0000-00-00#1#юрисконсульт#2#empty#valeborissov@mail.ru#"(4852) 91-11-21"#empty#f27a7bf2c0608a43d037542b72252994#0#empty#empty#empty#empty#empty#1#empty#empty#empty#1#0

432#0#Валерий#Борисов#Вадимович#43#0000-00-00#1#юрисконсульт#2#"45 000 "#valeborissov@mail.ru#"(4852) 91-11-21"#empty#1ce2cfa23eea7071b6a7f3cbf9eaf977#0#empty#"горный туризм"#"каратэ, айкидо "#empty#empty#1#empty#empty#empty#1#0

448#0#Сергей#Алексеев#Николаевич#36#0000-00-00#8#электромонтер#4#"от 15000"#o-l-m.70@mail.ru#89201008105#"без вредных привычек"#0cf66668900c2538191eb38e51bd6bde#0#empty#empty#empty#empty#empty#1#empty#empty#empty#1#0

451#0#Иван#Лебедев#empty#25#0000-00-00#8#"инженер-технолог по сварке"#3#"30000 руб."#LeIvVa.83@mail.ru#empty#empty#91a48252f232982d5517c46912439058#0#empty#empty#empty#empty#empty#1#empty#empty#empty#1#0

452#0#Антон#Кузнецов#Викторович#33#0000-00-00#1#"рабочий сборочного конвейера"#1#25000#uhb987@yandex.ru#empty#empty#7d830b5b21e9667902cf0cedcbfc131d#0#empty#empty#empty#empty#empty#1#empty#empty#empty#1#0

462#0#hg#hg#empty#22#0000-00-00#0#hg#0#empty#natali_S88@mail.ru#empty#empty#e456e39f210313d3cc84b58015918b31#0#empty#empty#empty#empty#empty#1#empty#empty#empty#1#0

464#0#СЕРГЕЙ#БЕРЕЗОВСКИЙ#АЛЕКСАНДРОВИЧ#37#0000-00-00#8#"ВОДИТЕЛЬ ПОГРУЗЧИКА"#0#"20000 руб."#BERSAYAR@mail.ru#"8 920 106 0320"#"Водитель электропогрузчика 4мес. в ОАО ""ТИИР"""#1e41a6cf89efc556a2a6ef6df1a74fc4#0#empty#empty#empty#empty#empty#1#empty#empty#empty#1#0

467#0#Михаил#Лощилов#Владимирович#30#0000-00-00#1#"Мастер по ремонту"#3#35000#pautova.anna@gmail.ru#+79201049485#empty#3d0f8313a59425b060dde1fc910a9e46#0#empty#empty#empty#empty#empty#1#empty#empty#empty#1#0

472#0#Александр#Шанин#Викторович#28#0000-00-00#1#мастер#4#23000#shanin-sasha79@yandex.ru#89159962788#"Образование: Высшее, Ярославский Государственный Технический Университет, автомеханический факультет, инженер  по  специальности  “ Подъемно-транспортные, строительные,  дорожные  машины  и  оборудование”. Дата окончания: 2002г., Диплом №ИВС 0183403"#76e25a908762986f41357b068ab4b68d#0#empty#empty#empty#empty#empty#1#empty#empty#empty#1#0

473#0#Александр#Шанин#Викторович#28#0000-00-00#1#мастер#4#23000#shanin-sasha79@yandex.ru#+79159962788#"Образование: Высшее, Ярославский Государственный Технический Университет, автомеханический факультет, инженер  по  специальности  “ Подъемно-транспортные, строительные,  дорожные  машины  и  оборудование”. Дата окончания: 2002г., Диплом №ИВС 0183403"#d558102004a5a8397992d71d68c3a945#0#empty#"играю в футбол, волейбол, теннис."#empty#empty#empty#1#empty#empty#empty#1#0

475#0#Максим#Веретенов#empty#25#0000-00-00#1#инженер#2#empty#v_max@list.ru#empty#empty#8aac9d01b8f245ee99b1423a6674a7f3#0#empty#empty#empty#empty#empty#1#empty#empty#empty#1#0

478#0#Евгений#Стругалев#Николаевич#24#0000-00-00#1#инженер-программист#3#"от 22 000"#strugalev@yandex.ru#+79206526479#"ЛИЧНЫЕ СВЕДЕНИЯ                                                                                                                      Фамилия, имя, отчество	Стругалев Евгений Николаевич Дата  и место рождения	11.04.1984 г. г. Тутаев Ярославской областиГражданство 	Гражданин РФНациональность	русскийСемейное положение	женат,  детей нетАдрес проживания:	г. Ярославль, ул. Ел. Колесовой  д. 30  кв. 28 Телефон / e-mail	8-920-652-64-79 E-mail: strugalev@yandex.ru"#7772c5866f1b25679b935a9ee2a99db8#0#empty#empty#empty#empty#empty#1#empty#empty#empty#1#0

482#0#Наталья#Чугунова#Владимировна#34#0000-00-00#1#"зам.главного бухгалтера"#4#"30 000"#tortal@mail.ru#"8 903 690 98 98"#empty#9e0cabdd928aae4361830df18d792832#0#empty#empty#empty#empty#empty#1#empty#empty#empty#1#0

486#0#"Алексей "#Остапишин#Анатольевич#29#0000-00-00#2#"рассмотрю все соответствующие предложения"#3#"от 23000 руб."#chernul@yandex.ru#"+7 915 997 71 87"#"Образование высшее экономическое (Экономика),среднее техническое (двигатели внутреннего сгорания),ведущий инженер группы акцепта качества Управления сервисного обслуживания ОАО ""Автодизель""(Ярославский моторный завод), ответственность, быстрая обучаемость, комуникабельность, владение ПК на уровне продвинутого пользователя"#ca2cb47c16f02cf37f871c78a026e6ca#0#empty#empty#empty#empty#empty#1#empty#empty#empty#1#0

492#0#Мария#Демидова#Андреевна#23#0000-00-00#1#"Менеджер по качеству"#2#"От 18000"#mariademidova16@gmail.com#89206574393#empty#d6cbc8bc9ed350cf6a94df7a6b60035d#0#empty#empty#empty#empty#empty#1#empty#empty#empty#1#0

497#0#Лев#Сахаров#Иванович#50#0000-00-00#1#"начальник отдела, подразделения"#4#empty#lev_sakharov@mail.ru#8-962-202-20-76#empty#e05a58feb356b920c3515f9c0ee9935c#0#empty#empty#empty#empty#empty#1#empty#empty#empty#1#0

502#0#Сергей#Соломонов#Сергеевич#31#0000-00-00#1#механик#2#"35 000 руб"#SSSol@bk.ru#+79206530120#empty#adec3b6bc15e5a83a5d577f44ba25561#0#empty#empty#empty#empty#empty#1#empty#empty#empty#1#0

503#0#Максим#Кабанов#Витальевич#22#0000-00-00#8#"возможны варианты"#0#empty#medvedkogo@yandex.ru#89159900447#empty#03270b3d72a34c4585bbb267ebea7188#0#empty#empty#empty#empty#empty#1#empty#empty#empty#1#0

511#0#Сергей#"Панов "#Алексеевич#21#0000-00-00#6#"Руководитель подразделения"#1#"60 тыс.руб"#seregapanov092@mail.ru#89201228769#"Требуется жильё, если не дадите постараюсь найти поближе к месту работы"#7c1ddcc62202427623fd657c7039365c#0#empty#empty#empty#empty#empty#1#empty#empty#empty#1#0

513#0#Николай#Фомин#Юрьевич#34#0000-00-00#8#Электрогазосварщик#1#"от 15000 руб"#nick.04@mail.ru#8-906-632-30-21#"Опыт работы слесарем 6 разряда. Небольшой опыт электросварщика.Вредные привычки отсутствуют."#b41bc156f56eb7d313b8d38cd4300d8e#0#empty#"Стендовый маделизм,люблю собак(бульдогов)"#"Пробежки по утрам"#empty#empty#1#empty#empty#empty#1#0

515#0#Алексей#Баунов#Викторович#23#0000-00-00#1#"специалист по реализации, по продажам"#2#"20000 руб."#avbaunov@mail.ru#89109752272#empty#9e62b46f7bdbc295b50ad05c65e64459#0#empty#empty#empty#empty#empty#1#empty#empty#empty#1#0

516#0#Алексей#Баунов#Викторович#23#0000-00-00#1#"специалист по реализации, продажам"#2#"20000 рублей"#avbaunov@mail.ru#89109752272#empty#682c812d3fb2e81cabe7a13d8b006874#0#empty#empty#empty#empty#empty#1#empty#empty#empty#1#0

517#0#Михаил#бобков#Владимирович#36#0000-00-00#1#инженерная#4#"от 25000"#bobkov.m.v@mail.ru#89066379357#empty#39bec437ecfe0885862e633260a9e78f#0#empty#empty#empty#empty#empty#1#empty#empty#empty#1#0

518#0#Олег#Калабухов#Иванович#35#0000-00-00#1#"Руководитель службы комплектации"#4#"60000 руб"#olegk7@yandex.ru#"+7 906 529-6601"#empty#f22ac6e9d558ce3cc88254acc346d014#0#empty#empty#empty#empty#empty#1#empty#empty#empty#1#0

519#0#Алексей#Баунов#Викторович#23#0000-00-00#1#"менеджер по реализации"#2#20000#avbaunov@mail.ru#89109752272#empty#ef585945d69cdbcdbc12e8f93327a2b5#0#empty#"рыбная ловля, походы, спорт"#"Плаванье - 1-й взрослый разрядТренажерный зал"#empty#empty#1#empty#empty#empty#1#0

521#0#игорь#смирнов#александрович#38#0000-00-00#1#инженер#4#от35000#voron087@rambler.ru#"89109778712, 89611606307"#empty#f20583a521cd06d42c8086fb0341e09f#0#empty#empty#empty#empty#empty#1#empty#empty#empty#1#0

523#0#Алексей#Баунов#Викторович#23#0000-00-00#1#"менеджер реализации"#2#"20000 рублей"#avbaunov@mail.ru#89109752272#empty#6b9ef00f8d031f09cd080fc2fef317cc#0#empty#empty#empty#empty#empty#1#empty#empty#empty#1#0

524#0#Михаил#Бобков#Владимирович#36#0000-00-00#1#инженерная#4#"от 25000"#bobkov.m.v@mail.ru#8-906-637-93-57#"Опыт работы:-управление коллективом до 30 человек-монтаж,обслуживание и ремонт технологического оборудования, лифтов, грузоподъемного оборудования, коммуникаций(пар, вода,канализация, отопление)-механообработка-изготовление и монтаж металлоконструкций-изготовление оборудования-опыт работы в строительстве-монтаж ответственных металлоконструкций, обслуживание, ремонт и реконструкция зданий Имею вод.права категорий ""В"",""С"". Женат, дочери 9 лет.  "#3b128b33bdf4a6bceca07f8b68ca552d#0#empty#empty#empty#empty#empty#1#empty#empty#empty#1#0

525#0#Сергей#"Ищенко "#Леонидович#32#0000-00-00#1#"рассмотрю любые варианты"#0#empty#sergej.i@mail.ru#+79056316675#empty#4cf73212e9a63f553df039456b4286a6#0#empty#empty#empty#empty#empty#1#empty#empty#empty#1#0

526#0#Михаил#Бобков#Владимирович#36#0000-00-00#1#инженерная#4#"от 25000"#bobkov.m.v@mail.ru#8-906-637-93-57#" Опыт работы:"#8b5a31663e01e037086e33a172903bf9#0#empty#empty#empty#empty#empty#1#empty#empty#empty#1#0

530#0#Михаил#Бобков#Владимирович#36#0000-00-00#1#инженерная#4#"от 25000"#bobkov.m.v@mail.ru#8-906-637-93-57#empty#20a3c253014f5a25f9aaff5fcd4fef89#0#empty#empty#empty#empty#empty#1#empty#empty#empty#1#0

533#0#Айдар#Алимбеков#Минневарисович#29#0000-00-00#8#Электрогазосварщик#1#"25000 руб."#nataZherebcova@yandex.ru#89206573072#empty#118c04ae407d2e91d7ede94bc9f72db1#0#empty#empty#empty#empty#empty#1#empty#empty#empty#1#0

536#0#Сергей#Алексеев#Николаевич#36#0000-00-00#8#"Электромонтажник, Электромонтер"#4#"от 15000"#o-l-m.70@mail.ru#+7(920)1008105#empty#76cade0984892e5c10030d5ed1a86e74#0#empty#empty#empty#empty#empty#1#empty#empty#empty#1#0

548#0#Павел#"Курманов Павел Васильевич"#empty#23#0000-00-00#3#инженер#2#empty#PashaDVS@mail.ru#empty#empty#252e9220660f045f13086849889c5bb3#0#empty#empty#empty#empty#empty#1#empty#empty#empty#1#0

557#0#Николай#Кукушкин#Викторович#25#0000-00-00#1#"Инженер по охране труда и технике безопасности"#1#"от 20000"#abyts@mail.ru#89036920337#"Холост. Без вредных привичек, без проблем с армией. Коммуникабельный, хорошо обучаемый, работоспособный, ответственный, нацеленный на результат, исполнительный. "#29776b6859f06ecb4db1644dba997705#0#empty#empty#empty#empty#empty#1#empty#empty#empty#1#0

559#0#Николай#Кукушкин#Викторович#25#0000-00-00#1#"Инженер по охране труда и технике безопасности"#1#"от 20000"#abyts@mail.ru#89036920337#"Холост. Без вредных привычек, без проблем с армией. Ответственный, исполнительный,  коммуникабельный,  желание и возможность работать."#d707ba97632c6b99c2159950ca553cf2#0#empty#"Занятие спортом."#"Футбол, бассейн, тренажерный зал."#empty#empty#1#empty#empty#empty#1#0

566#0#Maxim#Ulyanichev#Aleksandrovich#26#0000-00-00#0#Инженер#0#empty#Belatrichi-dejavu@yandex.ru#empty#empty#955fc5e47249d3a27aff56bb7bd4e2bc#0#empty#empty#empty#empty#empty#1#empty#empty#empty#1#0

570#0#Надежда#Байдина#Игоревна#22#0000-00-00#1#программист#2#"от 15000"#cat-witch@mail.ru#empty#empty#baa237de3707b218658aff30cf1e7e91#0#empty#empty#empty#empty#empty#1#empty#empty#empty#1#0

572#0#Сергей#"Чиликов "#Германович#46#0000-00-00#1#"Начальник производства, руководитель подразделения"#4#empty#chilikov@deka.yar.ru#+7-905-631-74-19#empty#54dc8215e7e161d738016d08f8bacb29#0#empty#empty#empty#empty#empty#1#empty#empty#empty#1#0

573#0#Егор#Иванов#Владимирович#26#0000-00-00#1#"Заместитель начальника отдела сбыта"#2#26000-66000#ivanoffegor@yandex.ru#8-915-990-45-35#"Окончил ЯГТУ в 2005. С 2005 по 2006 служба в ВС РФС 2006 по 2007 работал на ЯСЗ в должности начальника бюро гл.арх.С 2007 и по настоящее время работаю в должности начальника отдела механизации СДРП-СП ЦДРП-филиала ОАО ""РЖД"""#cb9c33527d51b7d2de170fe2b04b6d35#0#empty#empty#empty#empty#empty#1#empty#empty#empty#1#0

577#0#Михаил#Кувайцев#Николаевич#31#0000-00-00#1#"Ведущий специалист, менеджер по закупкам"#2#"35000 руб."#kmn@yartelecom.ru#89056469687#"Наличие автомобиля - права категории ""В"""#96ffaf5c0b8b1f1ee24cb1b64266676d#0#empty#empty#empty#empty#empty#1#empty#empty#empty#1#0

578#0#"Андрей "#"Мартышкин "#"Евгеньевич "#36#0000-00-00#1#"Руководитель  автотранспотрного  участка предприятия "#3#"от  40000 рублей "#Elena.Mart@mail.ru#8-910-970-19-95#"Имею водительское удостоверение  категорий А,Б,С,Д, водительское удостоверение  на право управления самоходными машинами и механизмами"#d84a28747099dc6f37b1c7d159749ddb#0#empty#empty#empty#empty#empty#1#empty#empty#empty#1#0

579#0#Михаил#Кувайцев#Николаевич#31#0000-00-00#1#"Ведущий специалист, менеджер по закупкам"#2#"35000 руб."#kmn@yartelecom.ru#89056469687#"Наличие автомобиля - права категории ""В"""#56ac174d0fdb87a238e85cdfb07c55e4#0#empty#empty#empty#empty#empty#1#empty#empty#empty#1#0

580#0#Михаил#Бобков#Владимирович#36#0000-00-00#1#ИТР#4#"от 25000"#www.bobkov.m.v@email.ru#8-906-637-93-57#empty#67f338208f2772b6af8fec0999fc439e#0#empty#empty#empty#empty#empty#1#empty#empty#empty#1#0